<svg
	xmlns="http://www.w3.org/2000/svg"
	xmlns:xlink="http://www.w3.org/1999/xlink"
	width="16px" height="16px" viewBox="0 0 16 16">
	<path fill-rule="evenodd"  fill="rgb(255, 255, 255)"
		d="M11.032,14.031 C9.256,14.031 8.010,12.849 8.010,11.001 C8.010,9.197 9.256,8.004 11.032,8.004 C12.808,8.004 14.054,9.197 14.054,11.001 C14.054,12.849 12.808,14.031 11.032,14.031 ZM11.032,9.650 C10.242,9.650 9.727,10.107 9.727,10.935 C9.727,11.824 10.278,12.260 11.032,12.260 C11.841,12.260 12.337,11.824 12.337,10.935 C12.337,10.107 11.823,9.650 11.032,9.650 ZM4.001,7.062 C2.225,7.062 0.979,5.880 0.979,4.033 C0.979,2.228 2.225,1.035 4.001,1.035 C5.777,1.035 7.023,2.228 7.023,4.033 C7.023,5.880 5.777,7.062 4.001,7.062 ZM4.001,2.598 C3.160,2.598 2.613,3.085 2.613,3.965 C2.613,4.910 3.199,5.374 4.001,5.374 C4.861,5.374 5.389,4.910 5.389,3.965 C5.389,3.085 4.842,2.598 4.001,2.598 Z"/>
		<path fill-rule="evenodd"  stroke="rgb(249, 249, 249)" stroke-width="2px" stroke-linecap="butt" stroke-linejoin="miter" fill="none"
			d="M11.833,2.166 L3.000,13.000 "/>
		</svg>