<svg
	xmlns="http://www.w3.org/2000/svg"
	xmlns:xlink="http://www.w3.org/1999/xlink"
	width="19px" height="19px" viewBox="0 0 19 19">
	<path fill-rule="evenodd"  stroke="rgb(255, 255, 255)" stroke-width="2px" stroke-linecap="butt" stroke-linejoin="miter" fill="none"
		d="M7.521,1.043 C11.099,1.043 14.000,3.944 14.000,7.521 C14.000,11.099 11.099,14.000 7.521,14.000 C3.943,14.000 1.043,11.099 1.043,7.521 C1.043,3.944 3.943,1.043 7.521,1.043 Z"/>
		<path fill-rule="evenodd"  stroke="rgb(255, 255, 255)" stroke-width="2px" stroke-linecap="butt" stroke-linejoin="miter" fill="none"
			d="M12.000,12.000 L16.000,16.000 "/>
		</svg>